<?xml version="1.0" encoding="utf-8"?>
<!-- Generator: Adobe Illustrator 16.0.0, SVG Export Plug-In . SVG Version: 6.00 Build 0)  -->
<!DOCTYPE svg PUBLIC "-//W3C//DTD SVG 1.1//EN" "http://www.w3.org/Graphics/SVG/1.1/DTD/svg11.dtd">
<svg version="1.1" id="Layer_1" xmlns="http://www.w3.org/2000/svg" xmlns:xlink="http://www.w3.org/1999/xlink" x="0px" y="0px"
	 width="125px" height="25px" viewBox="0 0 125 25" enable-background="new 0 0 125 25" xml:space="preserve">
<g>
	<path fill="#00A0BC" d="M29.523,23.13v-0.443h0.723v-2.943h-0.723v-0.44h1.378v3.384h0.724v0.443H29.523z M30.526,18.434
		c-0.142,0-0.258-0.042-0.349-0.128c-0.09-0.084-0.135-0.2-0.135-0.349c0-0.141,0.045-0.26,0.135-0.353
		c0.091-0.094,0.207-0.14,0.349-0.14c0.136,0,0.249,0.046,0.336,0.136c0.087,0.091,0.132,0.207,0.132,0.349
		c0,0.143-0.045,0.258-0.132,0.348C30.775,18.388,30.663,18.434,30.526,18.434z"/>
	<path fill="#00A0BC" d="M31.896,23.13v-0.443h0.638v-2.943h-0.638v-0.44h1.285v0.986c0.403-0.698,0.884-1.047,1.446-1.047
		c0.328,0,0.584,0.104,0.766,0.315c0.181,0.21,0.272,0.507,0.272,0.893v2.236h0.638v0.443h-1.88v-0.443h0.587v-1.938
		c0-0.381-0.073-0.645-0.221-0.792c-0.113-0.119-0.275-0.179-0.485-0.179c-0.278,0-0.531,0.129-0.761,0.388
		c-0.23,0.258-0.345,0.542-0.345,0.854v1.667h0.579v0.443H31.896z"/>
	<path fill="#00A0BC" d="M37.068,18.306l0.664-0.084v1.105h1.25v0.416h-1.25v2.408c0,0.397,0.159,0.596,0.476,0.596
		c0.267,0,0.479-0.228,0.638-0.682l0.306,0.121c-0.193,0.68-0.564,1.021-1.115,1.021c-0.317,0-0.558-0.092-0.722-0.272
		c-0.165-0.181-0.248-0.437-0.248-0.767v-2.425h-0.774v-0.416h0.774V18.306z"/>
	<path fill="#00A0BC" d="M42.76,21.25h-2.688c0.006,0.487,0.12,0.86,0.339,1.118c0.223,0.259,0.517,0.389,0.885,0.389
		c0.528,0,0.891-0.251,1.089-0.749h0.357c-0.113,0.391-0.307,0.688-0.583,0.892c-0.275,0.205-0.61,0.308-1.008,0.308
		c-0.55,0-0.986-0.18-1.31-0.541c-0.324-0.359-0.485-0.83-0.485-1.407c0-0.579,0.175-1.061,0.522-1.447
		c0.35-0.386,0.781-0.577,1.297-0.577c0.523,0,0.919,0.198,1.191,0.595C42.64,20.227,42.771,20.7,42.76,21.25z M41.134,19.6
		c-0.289,0-0.527,0.11-0.714,0.332c-0.188,0.221-0.302,0.539-0.341,0.952h2C42.017,20.028,41.702,19.6,41.134,19.6z"/>
	<path fill="#00A0BC" d="M43.194,23.13v-0.443h0.638v-2.943h-0.638v-0.44h1.284v0.9c0.12-0.312,0.283-0.549,0.493-0.71
		s0.431-0.244,0.663-0.244c0.188,0,0.338,0.059,0.452,0.173c0.114,0.112,0.17,0.252,0.17,0.416c0,0.136-0.044,0.253-0.131,0.348
		c-0.088,0.097-0.198,0.146-0.329,0.146s-0.239-0.041-0.327-0.123c-0.088-0.081-0.132-0.188-0.132-0.318
		c0-0.063,0.012-0.116,0.034-0.162c-0.193-0.018-0.371,0.069-0.536,0.259s-0.278,0.401-0.341,0.633v2.067h0.749v0.443H43.194z"/>
	<path fill="#00A0BC" d="M46.477,23.13v-0.443h0.638v-2.943h-0.638v-0.44h1.285v0.986c0.403-0.698,0.885-1.047,1.446-1.047
		c0.328,0,0.583,0.104,0.766,0.315c0.181,0.21,0.271,0.507,0.271,0.893v2.236h0.638v0.443h-1.88v-0.443h0.587v-1.938
		c0-0.381-0.074-0.645-0.221-0.792c-0.113-0.119-0.275-0.179-0.485-0.179c-0.277,0-0.532,0.129-0.761,0.388
		c-0.23,0.258-0.346,0.542-0.346,0.854v1.667h0.58v0.443H46.477z"/>
	<path fill="#00A0BC" d="M54.593,21.25h-2.689c0.005,0.487,0.12,0.86,0.341,1.118c0.222,0.259,0.516,0.389,0.884,0.389
		c0.528,0,0.89-0.251,1.089-0.749h0.357c-0.113,0.391-0.308,0.688-0.582,0.892c-0.276,0.205-0.612,0.308-1.008,0.308
		c-0.55,0-0.986-0.18-1.31-0.541c-0.324-0.359-0.485-0.83-0.485-1.407c0-0.579,0.174-1.061,0.523-1.447
		c0.349-0.386,0.78-0.577,1.297-0.577c0.521,0,0.918,0.198,1.19,0.595C54.474,20.227,54.604,20.7,54.593,21.25z M52.968,19.6
		c-0.29,0-0.527,0.11-0.714,0.332c-0.188,0.221-0.3,0.539-0.341,0.952h2C53.85,20.028,53.535,19.6,52.968,19.6z"/>
	<path fill="#00A0BC" d="M55.579,18.306l0.664-0.084v1.105h1.25v0.416h-1.25v2.408c0,0.397,0.16,0.596,0.477,0.596
		c0.267,0,0.479-0.228,0.639-0.682l0.306,0.121c-0.193,0.68-0.564,1.021-1.115,1.021c-0.318,0-0.559-0.092-0.724-0.272
		c-0.164-0.181-0.247-0.437-0.247-0.767v-2.425h-0.774v-0.416h0.774V18.306z"/>
	<path fill="#00A0BC" d="M58.25,23.172v-5.428h-0.638v-0.459h1.293v2.842c0.147-0.283,0.336-0.504,0.566-0.66
		c0.229-0.154,0.475-0.232,0.736-0.232c0.379,0,0.692,0.12,0.936,0.365c0.357,0.352,0.536,0.88,0.536,1.582
		c0,0.692-0.19,1.228-0.57,1.607c-0.272,0.271-0.6,0.409-0.986,0.409c-0.278,0-0.529-0.078-0.752-0.233
		c-0.225-0.156-0.399-0.369-0.524-0.634l-0.247,0.841H58.25z M59.986,22.757c0.295,0,0.53-0.139,0.706-0.415
		c0.176-0.274,0.264-0.655,0.264-1.144c0-0.481-0.084-0.856-0.255-1.122c-0.17-0.267-0.402-0.4-0.697-0.4
		c-0.312,0-0.576,0.154-0.791,0.465c-0.216,0.308-0.323,0.697-0.323,1.169c0,0.447,0.107,0.801,0.323,1.059
		C59.427,22.627,59.685,22.757,59.986,22.757z"/>
	<path fill="#00A0BC" d="M63.678,23.198c-0.323,0-0.575-0.105-0.753-0.315c-0.179-0.21-0.268-0.51-0.268-0.901v-2.238h-0.63v-0.44
		h1.285v2.381c0,0.391,0.073,0.657,0.221,0.8c0.097,0.112,0.253,0.171,0.469,0.171c0.277,0,0.529-0.13,0.756-0.388
		s0.342-0.54,0.342-0.846v-1.678h-0.655v-0.44h1.317v3.384h0.63v0.443h-1.276v-0.979C64.708,22.849,64.229,23.198,63.678,23.198z"/>
	<path fill="#00A0BC" d="M66.69,23.13v-0.443h0.636v-2.943H66.69v-0.44h1.284v0.9c0.119-0.312,0.281-0.549,0.492-0.71
		s0.432-0.244,0.664-0.244c0.187,0,0.336,0.059,0.449,0.173c0.115,0.112,0.172,0.252,0.172,0.416c0,0.136-0.045,0.253-0.132,0.348
		c-0.089,0.097-0.198,0.146-0.327,0.146c-0.131,0-0.24-0.041-0.328-0.123c-0.09-0.081-0.131-0.188-0.131-0.318
		c0-0.063,0.01-0.116,0.033-0.162c-0.191-0.018-0.372,0.069-0.536,0.259c-0.165,0.189-0.278,0.401-0.341,0.633v2.067h0.75v0.443
		H66.69z"/>
	<path fill="#00A0BC" d="M73.359,21.25H70.67c0.005,0.487,0.121,0.86,0.342,1.118c0.221,0.259,0.516,0.389,0.884,0.389
		c0.528,0,0.89-0.251,1.089-0.749h0.356c-0.113,0.391-0.306,0.688-0.581,0.892c-0.276,0.205-0.612,0.308-1.009,0.308
		c-0.55,0-0.986-0.18-1.311-0.541c-0.323-0.359-0.483-0.83-0.483-1.407c0-0.579,0.174-1.061,0.523-1.447
		c0.348-0.386,0.779-0.577,1.297-0.577c0.521,0,0.918,0.198,1.19,0.595C73.24,20.227,73.37,20.7,73.359,21.25z M71.734,19.6
		c-0.29,0-0.526,0.11-0.715,0.332c-0.188,0.221-0.301,0.539-0.34,0.952h1.999C72.615,20.028,72.301,19.6,71.734,19.6z"/>
	<path fill="#00A0BC" d="M75,23.189c-0.346,0-0.615-0.09-0.809-0.272c-0.192-0.181-0.289-0.423-0.289-0.723
		c0-0.273,0.088-0.5,0.265-0.68c0.141-0.143,0.318-0.252,0.532-0.323c0.213-0.074,0.519-0.143,0.922-0.206
		c0.271-0.046,0.442-0.079,0.506-0.105c0.066-0.025,0.099-0.073,0.099-0.14v-0.374c0-0.274-0.065-0.469-0.196-0.588
		S75.701,19.6,75.434,19.6c-0.306,0-0.549,0.074-0.73,0.221c0.152,0.079,0.23,0.211,0.23,0.392c0,0.125-0.041,0.228-0.12,0.312
		c-0.08,0.082-0.187,0.122-0.323,0.122s-0.246-0.042-0.327-0.126c-0.082-0.087-0.124-0.197-0.124-0.334
		c0-0.271,0.149-0.496,0.446-0.675s0.651-0.269,1.06-0.269c0.895,0,1.344,0.383,1.344,1.148v1.998c0,0.127,0.02,0.214,0.06,0.266
		c0.04,0.051,0.104,0.077,0.195,0.077c0.131,0,0.245-0.114,0.341-0.343l0.255,0.146c-0.103,0.223-0.212,0.383-0.332,0.484
		c-0.118,0.104-0.271,0.153-0.459,0.153c-0.187,0-0.341-0.059-0.46-0.173c-0.119-0.118-0.18-0.294-0.186-0.533h-0.026
		c-0.13,0.216-0.312,0.391-0.541,0.523S75.262,23.189,75,23.189z M75.291,22.738c0.232,0,0.444-0.082,0.641-0.246
		c0.195-0.165,0.294-0.355,0.294-0.571v-0.756c-0.063,0.022-0.202,0.051-0.417,0.085c-0.441,0.068-0.75,0.159-0.924,0.276
		c-0.172,0.116-0.258,0.299-0.258,0.548C74.627,22.517,74.848,22.738,75.291,22.738z"/>
	<path fill="#00A0BC" d="M79.264,23.198c-0.324,0-0.575-0.105-0.754-0.315s-0.269-0.51-0.269-0.901v-2.238h-0.629v-0.44h1.284v2.381
		c0,0.391,0.073,0.657,0.221,0.8c0.098,0.112,0.253,0.171,0.469,0.171c0.277,0,0.529-0.13,0.756-0.388
		c0.229-0.258,0.342-0.54,0.342-0.846v-1.678h-0.656v-0.44h1.32v3.384h0.629v0.443h-1.277v-0.979
		C80.291,22.849,79.813,23.198,79.264,23.198z"/>
</g>
<path fill="#00A0BC" d="M10.842,16.328l2.464-2.463l2.444,2.444l-2.464,2.464L10.842,16.328z M15.323,11.848l2.465-2.463
	l2.444,2.445l-2.464,2.463L15.323,11.848z M10.842,7.366l2.464-2.464l2.444,2.444l-2.464,2.465L10.842,7.366z M13.289,0.887
	L6.843,7.333l4.46,4.461L6.84,16.257l6.456,6.454l10.899-10.917L13.289,0.887z"/>
<path fill="#00A0BC" d="M67.578,9.216c-0.303-0.584-0.629-0.833-1.091-0.833c-0.425,0-0.752,0.305-0.752,0.72
	c0,1.371,3.359,1.191,3.359,3.527c0,1.541-1.01,2.45-2.517,2.45c-1.426,0-2.461-1-2.707-2.202l1.18-0.742
	c0.236,0.844,0.707,1.597,1.562,1.597c0.605,0,1.021-0.305,1.021-1.023c0-1.304-3.292-1.044-3.292-3.539
	c0-1.191,0.911-2.135,2.145-2.135c1.046,0,1.845,0.517,2.271,1.427L67.578,9.216z"/>
<path fill="#00A0BC" d="M75.061,12.609h-3.898c0.034,0.629,0.473,1.281,1.336,1.281c0.643,0,1.035-0.291,1.372-0.876l1.124,0.415
	c-0.438,1.001-1.203,1.651-2.573,1.651c-1.943,0-2.72-1.583-2.72-2.92c0-1.337,0.776-2.921,2.72-2.921
	c1.887,0,2.64,1.562,2.64,2.798V12.609z M71.196,11.508h2.438c-0.122-0.563-0.472-1.079-1.213-1.079
	C71.713,10.43,71.297,10.969,71.196,11.508z"/>
<path fill="#00A0BC" d="M78.836,15.08c-0.572,0-1.123-0.292-1.371-0.607v2.098h-1.393V9.329h1.393v0.583
	c0.158-0.292,0.676-0.673,1.371-0.673c1.709,0,2.584,1.18,2.584,2.921C81.42,13.901,80.545,15.08,78.836,15.08z M78.646,10.43
	c-0.73,0-1.305,0.606-1.305,1.73c0,1.123,0.574,1.73,1.305,1.73c0.729,0,1.312-0.607,1.312-1.73
	C79.959,11.036,79.375,10.43,78.646,10.43z"/>
<path fill="#00A0BC" d="M85.689,14.879c-0.314,0.146-0.618,0.201-0.921,0.201c-1.281,0-2.079-0.685-2.079-2.089v-2.473h-0.876v-1.19
	h0.876V7.912l1.394-0.009v1.425h1.495v1.19h-1.495v2.45c0,0.696,0.27,0.921,0.743,0.921c0.188,0,0.347-0.033,0.539-0.136
	L85.689,14.879z"/>
<path fill="#00A0BC" d="M39.019,14.879c-0.315,0.146-0.618,0.201-0.921,0.201c-1.28,0-2.079-0.685-2.079-2.089v-2.473h-0.876v-1.19
	h0.876V7.912l1.393-0.009v1.425h1.495v1.19h-1.495v2.45c0,0.696,0.27,0.921,0.742,0.921c0.19,0,0.347-0.033,0.539-0.136
	L39.019,14.879z"/>
<path fill="#00A0BC" d="M91.566,12.609h-3.898c0.033,0.629,0.471,1.281,1.338,1.281c0.639,0,1.033-0.291,1.369-0.876l1.123,0.415
	c-0.438,1.001-1.202,1.651-2.572,1.651c-1.945,0-2.719-1.583-2.719-2.92c0-1.337,0.773-2.921,2.719-2.921
	c1.889,0,2.641,1.562,2.641,2.798V12.609z M87.701,11.508h2.438c-0.124-0.563-0.472-1.079-1.213-1.079
	C88.217,10.43,87.802,10.969,87.701,11.508z"/>
<path fill="#00A0BC" d="M95.891,14.991v-3.776c0-0.572-0.279-0.785-0.695-0.785c-0.686,0-1.225,0.798-1.225,2.482v2.08h-1.394V9.329
	h1.394v0.909c0.416-0.628,0.898-0.999,1.628-0.999c0.698,0,1.339,0.348,1.585,1.169c0.405-0.73,1.034-1.169,1.731-1.169
	c1.056,0,1.685,0.652,1.685,1.741v4.012h-1.395v-3.776c0-0.572-0.279-0.785-0.695-0.785c-0.674,0-1.225,0.764-1.225,2.359v2.203
	H95.891z"/>
<path fill="#00A0BC" d="M104.78,15.08c-0.698,0-1.216-0.381-1.372-0.673v0.584h-1.393V7.903h1.393v1.941
	c0.247-0.314,0.797-0.606,1.372-0.606c1.706,0,2.581,1.18,2.581,2.921C107.361,13.901,106.486,15.08,104.78,15.08z M104.588,10.43
	c-0.73,0-1.304,0.606-1.304,1.73c0,1.123,0.573,1.73,1.304,1.73s1.314-0.607,1.314-1.73C105.902,11.036,105.318,10.43,104.588,10.43
	z"/>
<path fill="#00A0BC" d="M113.396,12.609h-3.898c0.033,0.629,0.472,1.281,1.336,1.281c0.641,0,1.035-0.291,1.371-0.876l1.125,0.415
	c-0.438,1.001-1.203,1.651-2.574,1.651c-1.943,0-2.719-1.583-2.719-2.92c0-1.337,0.775-2.921,2.719-2.921
	c1.889,0,2.641,1.562,2.641,2.798V12.609z M109.531,11.508h2.439c-0.123-0.563-0.475-1.079-1.215-1.079
	C110.049,10.43,109.633,10.969,109.531,11.508z"/>
<path fill="#00A0BC" d="M114.408,14.991V9.329h1.394v0.921c0.404-0.664,1.034-1.011,1.673-1.011c0.248,0,0.463,0.044,0.686,0.112
	l-0.258,1.292c-0.17-0.102-0.35-0.157-0.584-0.157c-0.809,0-1.517,0.663-1.517,2.494v2.011H114.408z"/>
<path fill="#00A0BC" d="M33.306,9.065c-0.311-0.6-0.646-0.854-1.118-0.854c-0.438,0-0.772,0.312-0.772,0.738
	c0,1.406,3.446,1.221,3.446,3.618c0,1.58-1.037,2.513-2.581,2.513c-1.464,0-2.524-1.024-2.778-2.259l1.21-0.76
	c0.242,0.864,0.726,1.637,1.602,1.637c0.622,0,1.049-0.312,1.049-1.049c0-1.338-3.377-1.073-3.377-3.631
	c0-1.222,0.934-2.189,2.202-2.189c1.072,0,1.89,0.529,2.328,1.463L33.306,9.065z"/>
<path fill="#00A0BC" d="M43.712,14.989v-0.934c-0.427,0.609-1.049,1.024-1.799,1.024c-1.038,0-1.786-0.587-1.786-1.751v-4.15h1.429
	v3.723c0,0.692,0.345,0.958,0.83,0.958c0.691,0,1.326-0.831,1.326-2.363V9.179h1.429v5.811H43.712z"/>
<path fill="#00A0BC" d="M48.54,9.087c0.588,0,1.153,0.3,1.406,0.623V6.829h1.43v8.16h-1.43v-0.6c-0.162,0.299-0.691,0.69-1.406,0.69
	c-1.752,0-2.65-1.209-2.65-2.996C45.889,10.297,46.788,9.087,48.54,9.087z M48.735,13.86c0.75,0,1.338-0.624,1.338-1.776
	c0-1.153-0.588-1.775-1.338-1.775c-0.749,0-1.348,0.622-1.348,1.775C47.387,13.236,47.987,13.86,48.735,13.86z"/>
<path fill="#00A0BC" d="M53.161,6.585c0.53,0,0.922,0.405,0.922,0.922c0,0.519-0.392,0.922-0.922,0.922
	c-0.53,0-0.922-0.403-0.922-0.922C52.239,6.99,52.631,6.585,53.161,6.585z M53.875,9.179v5.811h-1.43V9.179H53.875z"/>
<path fill="#00A0BC" d="M57.734,9.087c1.867,0,2.951,1.313,2.951,2.997c0,1.683-1.084,2.996-2.951,2.996
	c-1.868,0-2.951-1.313-2.951-2.996C54.783,10.401,55.866,9.087,57.734,9.087z M57.734,13.86c0.923,0,1.453-0.819,1.453-1.776
	c0-0.956-0.529-1.775-1.453-1.775c-0.921,0-1.452,0.819-1.452,1.775C56.282,13.041,56.812,13.86,57.734,13.86z"/>
</svg>
